{
   "id": "ajeeop85v2nk0s402m7e",
   "service_account_id": "ajetccv7faanco4e6q02",
   "created_at": "2023-06-03T07:59:07.068325017Z",
   "key_algorithm": "RSA_2048",
   "public_key": "-----BEGIN PUBLIC KEY-----\nMIIBIjANBgkqhkiG9w0BAQEFAAOCAQ8AMIIBCgKCAQEAo2+EieDkPbQapcD4MIh0\n8g4J5XWAX4hiEG3jnvhhdILrSrw8oyWAAi4pkzGqg1mztgacK7IG2Wus5xsaEgkv\nvdeiEDWeg1/QnlCcEZSDfekH3K7AHjlyIO70LWUaECIG/PhJCd17CAKoEepWaIY2\nAdm8GKnh8c1kqaJDikwPgkEBEp7IgBr8n+SCwB0xYg5JFkq6LPfzajbdwSzStjFh\nw3rCtxoIQQDjcNGVc5BfjPTSEvDM8yVEzouSBmZ5l0BbfauSiSx5lLVd7gzzs07L\nhpvOzUX+mPa/wg/fGEG6HJNbMg6npuHDZKkhFZiEhNsISxvraN1sCU3oPjCRozu9\n3QIDAQAB\n-----END PUBLIC KEY-----\n",
   "private_key": "-----BEGIN PRIVATE KEY-----\nMIIEvQIBADANBgkqhkiG9w0BAQEFAASCBKcwggSjAgEAAoIBAQCjb4SJ4OQ9tBql\nwPgwiHTyDgnldYBfiGIQbeOe+GF0gutKvDyjJYACLimTMaqDWbO2BpwrsgbZa6zn\nGxoSCS+916IQNZ6DX9CeUJwRlIN96QfcrsAeOXIg7vQtZRoQIgb8+EkJ3XsIAqgR\n6lZohjYB2bwYqeHxzWSpokOKTA+CQQESnsiAGvyf5ILAHTFiDkkWSros9/NqNt3B\nLNK2MWHDesK3GghBAONw0ZVzkF+M9NIS8MzzJUTOi5IGZnmXQFt9q5KJLHmUtV3u\nDPOzTsuGm87NRf6Y9r/CD98YQbock1syDqem4cNkqSEVmISE2whLG+to3WwJTeg+\nMJGjO73dAgMBAAECggEAFjSRYStXT2PgR/uBLRTpMLcEFLNDgxdUXY+UoNV15j7g\naZnMMk1myEUN3IQfuvNt1ZIt10j7ocA9sHOv9dneLPC2gfXLCOX0ggIJRmEzgWCv\nMwZiL2kWLs/QiLdnFGCPKwEv6UF4lRTJUY/ReCeeAF/dLMuuGWyS2/JiM1DUvZlP\n9Sp3WxZvN4Z9Bwm7J8Yacc6cfZplN3aVn71BY4LozZsJwCDH5zLmaRqMg1W8QTyA\nvicgy8aEdF1nLw+Zu9hk6McsXYKFWIwabhK4axjFAXTya+z+inefv/J+3oXz+lQp\nIXlYUVP3jzgiGYaN52cQwFybNcIe+bX9LUD+6bqSEQKBgQC20A3C7zubs4wowjs5\ncHGVKsBZ8+qwfcULj1fFZ+iy8h1vGZ2DVgaxLHXQW7sgpl613xQJyjxzbZdQp1GB\nIEH0ExSJB20aoOxKMFzMzb9kzpzEgqXYJArPwDq2pUQJStVUwclk019sR5UT6RM5\nIUYvz/PNKvOfULxDSV3gGagsbQKBgQDk3Y/HFS4sqdqnVE5O/DiCRVctaF70FHat\naBDkXz7Gy4/CQYjo4iC9fYW/ysDhdogjW2BNvwyIlhiSop2MMysIEXRWrLJUYJ0y\nlcG7ph/XAs5RsHuyHqMfATNFL0DO64NRc5ICQVWX+eO8DOI7Xn5WPobBQpGJZH8w\nnHflLHgRMQKBgQCLT6UNBe3wyzRl4w3qyatktv16DwyrjkxYcNW8E2Ea7LJNdcG4\n0hercGwfaagCS4YlJmhIxZqng74psjfEJObdrqSZf9U+0579MjmlwKy3j1Ob1Mu5\nGE483wpfITXltuc2/a4RbZpsE2ihkZ4ajSbFTL1HfhHFOGsfA4vMOQEVSQKBgDMR\nvaOO9l7BCCmOhmrZnUJ0dp+LSqTsbA8Fyb8sAbYadlnChepxixy9hbrmY2PsLzS0\njyjKGOHhnFocL0u5n0CNpIgywRhS9sDy6egVicVQuvk/iFqWu4+PlQE7KhsCMqta\nPpqCObdP66FqvpDA5TAZg7hcQl2GL1uJjrd01NYBAoGAJzJ7nlnkC7NOjrgLMeN8\nbpoSXvuxs7hcESh31/dOXoh9POecjmfNIicmUGDXLvcp0BwVp6tePifLcNz737Tv\nY8ySXgkABJEvZ7q6GGDw1F6dH09lHeEzQ/PYppQKt8mRDm+vaVk0r+3Ul2+8wT17\nQW6rJn1f2gGYa8xezsTolCQ=\n-----END PRIVATE KEY-----\n"
}